<?xml version="1.0" encoding="UTF-8"?>
<svg width="50px" height="50px" viewBox="0 0 50 50" version="1.1" xmlns="http://www.w3.org/2000/svg" xmlns:xlink="http://www.w3.org/1999/xlink">
    <title>Varjuline kasvukoht</title>
    <g id="Page-1" stroke="none" stroke-width="1" fill="none" fill-rule="evenodd">
        <g id="Tootesildid" transform="translate(-50.000000, -190.000000)" fill="#3AB549">
            <g id="Varjuline-kasvukoht" transform="translate(50.000000, 190.000000)">
                <path d="M25,4.16666667 C13.4940625,4.16666667 4.16666667,13.4940625 4.16666667,25 C4.16666667,36.5058333 13.4940625,45.8333333 25,45.8333333 C36.5058333,45.8333333 45.8333333,36.5058333 45.8333333,25 C45.8333333,13.4940625 36.5058333,4.16666667 25,4.16666667 Z M25,4.16666667 C13.4940625,4.16666667 4.16666667,13.4940625 4.16666667,25 C4.16666667,36.5058333 13.4940625,45.8333333 25,45.8333333 C36.5058333,45.8333333 45.8333333,36.5058333 45.8333333,25 C45.8333333,13.4940625 36.5058333,4.16666667 25,4.16666667 Z M0,25 C0,11.192875 11.192875,0 25,0 C38.8070833,0 50,11.192875 50,25 C50,38.8070833 38.8070833,50 25,50 C11.192875,50 0,38.8070833 0,25 Z" id="Shape"></path>
            </g>
        </g>
    </g>
</svg>