<?xml version="1.0" encoding="UTF-8"?>
<svg width="20px" height="28px" viewBox="0 0 20 28" version="1.1" xmlns="http://www.w3.org/2000/svg" xmlns:xlink="http://www.w3.org/1999/xlink">
    <title>header-image-arrow-left</title>
    <g id="Page-1" stroke="none" stroke-width="1" fill="none" fill-rule="evenodd">
        <g id="header-image-arrow-left" transform="translate(10.000000, 14.000000) scale(-1, 1) translate(-10.000000, -14.000000) " fill="#FFFFFF">
            <path d="M0,3.8936625 C0,0.7645375 3.60635,-0.98827125 6.066825,0.9449625 L18.566875,10.7664 C19.471625,11.477375 20,12.564375 20,13.715125 L20,13.784875 C20,14.935625 19.471625,16.022625 18.566875,16.733625 L6.066825,26.555 C3.6063375,28.48825 0,26.7355 0,23.606375 L0,3.8936625 Z M4.522275,2.9107625 C3.7021125,2.26635 2.5,2.850625 2.5,3.8936625 L2.5,23.606375 C2.5,24.649375 3.7021125,25.233625 4.522275,24.58925 L17.02225,14.76775 C17.323875,14.530875 17.5,14.1685 17.5,13.784875 L17.5,13.715125 C17.5,13.3315 17.323875,12.969125 17.02225,12.73225 L4.522275,2.9107625 Z" id="Shape"></path>
        </g>
    </g>
</svg>